<?xml version="1.0" encoding="UTF-8" standalone="no"?>
<!-- Created with Inkscape (http://www.inkscape.org/) -->

<svg
   xmlns:dc="http://purl.org/dc/elements/1.1/"
   xmlns:cc="http://creativecommons.org/ns#"
   xmlns:rdf="http://www.w3.org/1999/02/22-rdf-syntax-ns#"
   xmlns:svg="http://www.w3.org/2000/svg"
   xmlns="http://www.w3.org/2000/svg"
   xmlns:sodipodi="http://sodipodi.sourceforge.net/DTD/sodipodi-0.dtd"
   xmlns:inkscape="http://www.inkscape.org/namespaces/inkscape"
   id="svg2985"
   version="1.1"
   inkscape:version="0.48.5 r10040"
   width="249.725"
   height="240.925"
   xml:space="preserve"
   sodipodi:docname="Copy of DSA_Logo.eps"><metadata
     id="metadata2991"><rdf:RDF><cc:Work
         rdf:about=""><dc:format>image/svg+xml</dc:format><dc:type
           rdf:resource="http://purl.org/dc/dcmitype/StillImage" /><dc:title></dc:title></cc:Work></rdf:RDF></metadata><defs
     id="defs2989"><clipPath
       clipPathUnits="userSpaceOnUse"
       id="clipPath3001"><path
         d="m 0,0 1997.82,0 0,1927 L 0,1927 0,0 z"
         id="path3003" /></clipPath></defs><sodipodi:namedview
     pagecolor="#ffffff"
     bordercolor="#666666"
     borderopacity="1"
     objecttolerance="10"
     gridtolerance="10"
     guidetolerance="10"
     inkscape:pageopacity="0"
     inkscape:pageshadow="2"
     inkscape:window-width="1366"
     inkscape:window-height="705"
     id="namedview2987"
     showgrid="false"
     inkscape:zoom="1.9923212"
     inkscape:cx="124.8625"
     inkscape:cy="80.308334"
     inkscape:window-x="-8"
     inkscape:window-y="-8"
     inkscape:window-maximized="1"
     inkscape:current-layer="g2993" /><g
     id="g2993"
     inkscape:groupmode="layer"
     inkscape:label="ink_ext_XXXXXX"
     transform="matrix(1.25,0,0,-1.25,0,240.925)"><g
       id="g2995"
       transform="scale(0.1,0.1)"><g
         id="g2997"><g
           id="g2999"
           clip-path="url(#clipPath3001)"><path
             d="m 0,0 1997.82,0 0,1927.38 L 0,1927.38 0,0 z"
             style="fill:#eb1e27;fill-opacity:1;fill-rule:nonzero;stroke:none"
             id="path3005" /><path
             d="m 1490.14,472.391 c -16.19,-0.391 -159.04,-3.993 -188.45,-11.282 -20.86,-5.199 -58.81,4 -71.68,7.981 -6.57,2.07 -13.59,-1.629 -15.63,-8.231 -2.05,-6.589 1.63,-13.589 8.22,-15.64 1.72,-0.528 34.58,-10.617 64.02,-10.617 7.44,0 14.65,0.636 21.1,2.25 22.62,5.597 139.78,9.507 183.03,10.539 6.89,0.168 12.36,5.898 12.19,12.8 -0.16,6.911 -5.96,12.297 -12.8,12.2"
             style="fill:#211c1c;fill-opacity:1;fill-rule:nonzero;stroke:none"
             id="path3007" /><path
             d="M 1467.94,887.488 1009.02,866.961"
             style="fill:#ec1d27;fill-opacity:1;fill-rule:nonzero;stroke:none"
             id="path3009" /><path
             d="m 1086.04,873.898 63.83,137.132"
             style="fill:#ec1d27;fill-opacity:1;fill-rule:nonzero;stroke:none"
             id="path3011" /><path
             d="m 1149.87,873.27 107.1,134.67"
             style="fill:#ec1d27;fill-opacity:1;fill-rule:nonzero;stroke:none"
             id="path3013" /><path
             d="m 1256.97,878.059 74.15,107.437"
             style="fill:#ec1d27;fill-opacity:1;fill-rule:nonzero;stroke:none"
             id="path3015" /><path
             d="m 1342.95,881.898 41.83,75.922"
             style="fill:#ec1d27;fill-opacity:1;fill-rule:nonzero;stroke:none"
             id="path3017" /><path
             d="m 1342.95,881.898 51.18,-68.777"
             style="fill:#ec1d27;fill-opacity:1;fill-rule:nonzero;stroke:none"
             id="path3019" /><path
             d="m 1256.97,878.059 67.2,-109.688"
             style="fill:#ec1d27;fill-opacity:1;fill-rule:nonzero;stroke:none"
             id="path3021" /><path
             d="m 1149.87,873.27 48.79,-87.188"
             style="fill:#ec1d27;fill-opacity:1;fill-rule:nonzero;stroke:none"
             id="path3023" /><path
             d="m 1086.04,873.898 31.27,-99.25"
             style="fill:#ec1d27;fill-opacity:1;fill-rule:nonzero;stroke:none"
             id="path3025" /><path
             d="m 568.75,866.961 402.965,0"
             style="fill:#ec1d27;fill-opacity:1;fill-rule:nonzero;stroke:none"
             id="path3027" /><path
             d="M 882.168,866.961 833.43,997.273"
             style="fill:#ec1d27;fill-opacity:1;fill-rule:nonzero;stroke:none"
             id="path3029" /><path
             d="M 798.219,866.961 770.23,998.973"
             style="fill:#ec1d27;fill-opacity:1;fill-rule:nonzero;stroke:none"
             id="path3031" /><path
             d="m 718.004,866.961 -64.563,83.672"
             style="fill:#ec1d27;fill-opacity:1;fill-rule:nonzero;stroke:none"
             id="path3033" /><path
             d="m 718.004,866.961 -64.563,-94"
             style="fill:#ec1d27;fill-opacity:1;fill-rule:nonzero;stroke:none"
             id="path3035" /><path
             d="M 798.219,866.961 727,757.98"
             style="fill:#ec1d27;fill-opacity:1;fill-rule:nonzero;stroke:none"
             id="path3037" /><path
             d="m 882.168,866.961 -54.844,-94"
             style="fill:#ec1d27;fill-opacity:1;fill-rule:nonzero;stroke:none"
             id="path3039" /><path
             d="m 1106.03,1000.52 8.39,-1.957"
             style="fill:#ec1d27;fill-opacity:1;fill-rule:nonzero;stroke:none"
             id="path3041" /><path
             d="m 1396.31,831.129 -29.26,39.332 73.33,3.277 c -10.35,-11.558 -25.17,-26.707 -44.07,-42.609 z m -117.6,35.383 58.18,2.597 39.82,-53.527 c -14.29,-10.66 -30.36,-21.172 -47.99,-30.703 l -50.01,81.633 z m -257.19,42 0,13.117 c 13.06,11.598 56.98,48.644 104.78,68.371 l -50.04,-107.52 -54.74,-2.449 0,28.481 z m -31.153,31.156 c -3.867,0 -7.535,-0.797 -10.953,-2.094 -9.723,11.883 -49.969,54.774 -130.734,69.766 -40.782,65.34 -54.282,124.76 -40.047,176.62 11.676,42.53 40.004,71.18 60.015,86.89 -3.734,-39.02 -0.585,-74.64 8.899,-106.89 0.121,-0.77 0.402,-1.47 0.664,-2.21 7.605,-24.92 18.934,-47.87 34.465,-68.46 49.074,-65.06 124.264,-90.61 164.474,-100.071 -39.15,-23.024 -69.11,-49.922 -75.43,-55.766 -3.529,1.387 -7.337,2.215 -11.353,2.215 z M 936.543,757.672 c 9.082,6.558 16.562,13.34 22.672,19.848 l 0,-35.93 c -4.492,3.91 -11.988,9.808 -22.672,16.082 z m -346.945,96.789 104.656,0 -44.074,-64.172 c -31.285,22.231 -50.453,47.723 -60.582,64.172 z m 61.472,78.777 41.496,-53.777 -97.828,0 c 12.418,14.398 31.739,34.648 56.332,53.777 z m 308.145,-24.726 0,-29.051 -68.375,0 -38.008,101.617 c 64.84,-14.305 97.691,-47.98 106.383,-58.269 l 0,-14.297 z m -134.828,77.25 39.761,-106.301 -55.804,0 -22.91,108.055 c 1.738,0.05 3.461,0.148 5.211,0.148 11.984,0 23.152,-0.73 33.742,-1.902 z m -63.977,-0.739 22.383,-105.562 -58.645,0 -52.769,68.387 c 25.805,17.09 55.934,31.48 89.031,37.175 z m -54.609,-224.082 -3.363,1.539 c -11.301,4.258 -21.571,9.192 -31.079,14.489 l 53.223,77.492 50.535,0 -58.578,-89.652 c -0.137,-0.207 -0.144,-0.45 -0.266,-0.668 -3.457,-1.051 -6.945,-2.11 -10.472,-3.2 z m 46.988,13.649 52.191,79.871 55.426,0 L 820,785.211 c -22.758,-0.75 -44.66,-4.77 -67.211,-10.621 z m 157.602,-4.231 c -16.661,6.582 -37.325,12.02 -61.879,14.11 l 40.836,69.992 69.867,0 0,-34.031 c -3.113,-6.731 -16.012,-30.801 -48.754,-50.008 -0.027,-0.024 -0.043,-0.051 -0.07,-0.063 z M 695.066,1104.38 c 0,44.45 21.575,79.22 64.122,103.34 13.546,7.68 27.187,13.03 38.648,16.72 -5.231,-10.21 -9.832,-21.28 -13.219,-33.51 -14.976,-54.14 -3.965,-114.4 32.547,-179.37 -8.5,0.67 -17.281,1.1 -26.519,1.1 -20.817,0 -40.684,-3.23 -59.415,-8.7 -23.894,30.67 -36.164,64.38 -36.164,100.42 z m 96.993,227.17 c 20.363,25.05 47.152,37.5 71.703,33.25 11.746,-2.02 21.773,-7.71 29.566,-16.41 0.102,-0.14 0.246,-0.25 0.356,-0.38 2.976,-3.39 5.652,-7.19 7.918,-11.46 -4.586,-2.76 -9.875,-6.28 -14.239,-10.14 -7.375,-6.58 -11.332,-15.57 -13.304,-21.47 -10.274,-6.01 -34.664,-22.1 -56.368,-49.56 -9.714,-1.95 -31.644,-7.2 -55.777,-18.54 -0.957,21.41 2.07,60.18 30.145,94.71 z m 232.821,69.99 c 57.18,0 90.21,-31.13 104.83,-49.64 -29.86,0.51 -52.94,-4.18 -54.89,-4.6 -0.31,-0.07 -0.54,-0.28 -0.84,-0.37 -0.44,-0.12 -0.88,-0.18 -1.31,-0.35 -0.26,-0.12 -0.45,-0.33 -0.7,-0.45 -0.12,-0.06 -0.22,-0.15 -0.33,-0.21 -0.74,-0.4 -1.44,-0.8 -2.07,-1.33 -0.25,-0.2 -0.56,-0.28 -0.8,-0.5 -6.86,-6.61 -13.58,-12.26 -20.21,-17.32 -10.47,26.79 -29.93,41.97 -55.392,41.97 -34.328,0 -54.305,-17.42 -64.758,-31.19 -2.594,6.77 -5.777,13.04 -9.582,18.66 11.055,14 42.809,45.33 106.052,45.33 z m 229.54,-176.15 c -0.57,-17.27 -7.05,-33.21 -18.73,-47.09 -14.04,85.71 -72.14,121.64 -84.38,128.3 -2.44,5.66 -5.78,10.86 -10.06,15.57 -1.41,1.55 -2.88,3.01 -4.42,4.38 27.11,-1.34 58.5,-7.77 81.4,-27.38 23.86,-20.43 37.06,-47.32 36.19,-73.78 z m 37.79,-127.52 c 0,-30.64 -18.23,-60 -46.47,-75.19 -13.51,2.13 -27.6,3.62 -42.26,4.37 19.2,21.92 35.38,56.92 35.38,112.77 0,2.25 -0.22,4.27 -0.28,6.47 8.02,6.63 15.03,13.88 20.78,21.72 12.42,-11.67 32.85,-36.01 32.85,-70.14 z m 96.9,-158.093 c 22.46,-14.996 39.67,-29.828 51.21,-41.007 l -75.67,-3.391 24.46,44.398 z m -53.77,29.832 c 11.61,-5.269 22.5,-10.836 32.52,-16.605 l -32.47,-58.934 -53.84,-2.398 53.79,77.937 z m -73.41,24.481 c 17.79,-3.883 34.32,-8.957 49.78,-14.715 l -61.5,-89.113 -73.45,-3.282 85.17,107.11 z m -275.645,126.95 c 25.905,0 47.745,6.79 64.705,15.03 62.32,30.29 100.32,98.47 104.57,137.35 22.36,-18.24 58.3,-59.12 58.3,-133.6 0,-54.04 -16.89,-93.16 -48.86,-113.13 -0.07,-0.05 -0.1,-0.12 -0.17,-0.17 -6.19,-0.8 -12.38,-2.08 -18.56,-3.63 -0.31,-0.1 -0.62,-0.14 -0.92,-0.25 -10.8,-2.77 -21.51,-6.53 -31.97,-11 l -4.52,1.05 c -0.23,0.05 -0.45,-0.02 -0.67,0.02 -0.27,0.05 -0.49,0.2 -0.75,0.23 -1.13,0.12 -113.393,13.81 -174.92,95.56 -6.993,9.3 -13.059,19.14 -18.243,29.49 26.465,-12.22 50.641,-16.95 72.008,-16.95 z m -94.121,121.82 c 19.297,-16.13 50.074,-36.76 82.477,-37.95 21.066,-0.68 39.649,6.53 55.459,21.66 42.44,40.63 54.86,75.94 58.43,94.77 10.24,-1.74 25.11,-5.93 34.22,-15.97 6.48,-7.14 9.15,-16.33 8.14,-28.08 -2.4,-27.94 -34.81,-91.51 -90.83,-118.73 -43.173,-20.99 -90.099,-15.79 -139.486,15.31 -5.922,21.27 -8.75,44.29 -8.41,68.99 z m 53.102,75.21 c 5.64,9.08 19.765,25.67 47.902,25.67 19.392,0 29.062,-15.27 33.932,-30.87 -17,-8.99 -33.131,-12.67 -48.205,-10.56 -14.036,1.98 -25.317,8.72 -33.629,15.76 z m -41.301,-10.35 c 2.738,2.42 6.41,4.88 9.875,6.99 9.949,-12.52 30.336,-32.63 61.234,-37.1 4.153,-0.61 8.332,-0.91 12.555,-0.91 21.791,0 44.461,8.22 67.721,24.17 -7.27,-15.26 -20.02,-34.68 -42.53,-56.24 -10.89,-10.42 -23.14,-15.22 -37.211,-14.74 -34.668,1.24 -69.992,33.57 -81.343,44.9 0.726,6.38 1.574,12.83 2.675,19.41 0.438,2.05 2.743,9.69 7.024,13.52 z m 200.445,-423.982 54.19,116.412 c 7.75,1.58 15.46,2.53 22.99,2.53 18.32,0 35.74,-1.34 52.33,-3.649 l -90.29,-113.531 -39.22,-1.762 z m 375.3,-0.258 c 0.49,1.442 0.74,2.93 0.69,4.43 0,0.051 0.03,0.09 0.02,0.129 -0.01,0.242 -0.14,0.43 -0.16,0.672 -0.12,1.23 -0.41,2.43 -0.9,3.59 -0.21,0.5 -0.49,0.937 -0.77,1.41 -0.27,0.48 -0.44,1 -0.78,1.437 -3.42,4.403 -70.77,89.231 -198.5,120.812 23.54,20.94 37.9,50.84 37.9,81.91 0,47.82 -30.39,79.67 -45.21,92.39 4.48,10.89 7.01,22.42 7.4,34.31 1.12,34.08 -15.24,68.19 -44.91,93.6 -21.42,18.33 -47.98,27.2 -73.28,31.12 -0.12,0.28 -0.1,0.59 -0.25,0.87 -1.63,3.12 -40.97,76.38 -136.08,76.38 -69.489,0 -107.364,-33.2 -123.282,-52 -9.7,7.51 -20.996,12.73 -33.59,14.9 -33.559,5.82 -69.203,-9.96 -95.34,-42.11 -39.313,-48.36 -37.336,-102.82 -34.758,-123.67 -35.152,-22.48 -67.844,-59.45 -67.844,-119.28 0,-39.17 12.219,-75.84 36.344,-109.224 C 618.848,958.898 561.574,878.5 558.512,874.129 c -0.414,-0.59 -0.696,-1.238 -0.996,-1.879 -0.098,-0.211 -0.235,-0.391 -0.321,-0.609 -0.55,-1.36 -0.8,-2.782 -0.855,-4.231 -0.004,-0.16 -0.09,-0.289 -0.09,-0.449 0,-0.172 0.094,-0.32 0.102,-0.492 0.054,-1.418 0.261,-2.828 0.804,-4.18 0.012,-0.019 0.055,-0.117 0.067,-0.148 0.011,-0.032 0.023,-0.059 0.035,-0.082 1.836,-4.5 30.738,-72.02 111.832,-112.18 -48.547,-14.078 -104.309,-26.867 -176.934,-26.867 -6.902,0 -12.5,-5.602 -12.5,-12.5 0,-6.91 5.598,-12.5 12.5,-12.5 93.907,0 160,20.297 218.313,38.218 42.312,13 78.855,24.231 116.855,24.231 78.778,0 118.289,-40.301 118.906,-40.93 l 26.25,-26.242 c 2.442,-2.437 5.641,-3.66 8.836,-3.66 3.2,0 6.403,1.223 8.844,3.66 4.879,4.883 4.879,12.801 -0.004,17.672 l -5.941,5.937 0,191.614 c 0,3.386 2.758,6.16 6.152,6.16 3.395,0 6.153,-2.774 6.153,-6.16 l 0,-182.321 c 0,-6.91 5.59,-12.5 12.5,-12.5 6.9,0 12.5,5.59 12.5,12.5 l 0,51.309 c 8.44,-9 19.46,-18.551 33.75,-27.238 5.91,-3.571 13.59,-1.723 17.18,4.187 3.58,5.903 1.71,13.582 -4.19,17.18 -30.91,18.793 -43.65,42.281 -46.74,48.84 l 0,34.531 56.58,2.539 27.29,-86.648 c 1.68,-5.34 6.61,-8.743 11.92,-8.743 1.24,0 2.51,0.184 3.76,0.571 6.58,2.07 10.23,9.09 8.16,15.691 l -25.28,80.281 38.79,1.739 45.01,-80.45 c 2.28,-4.089 6.54,-6.398 10.92,-6.398 2.07,0 4.16,0.508 6.09,1.59 6.03,3.367 8.17,10.988 4.81,17.019 l -38.88,69.489 79.49,3.55 56.03,-91.46 c -3.17,-1.438 -6.3,-2.899 -9.55,-4.25 -6.38,-2.649 -9.4,-9.961 -6.75,-16.34 2,-4.801 6.65,-7.7 11.55,-7.7 1.59,0 3.22,0.301 4.78,0.95 8.25,3.429 16.12,7.152 23.82,11 0.21,0.109 0.44,0.16 0.65,0.281 0.05,0.027 0.08,0.09 0.13,0.121 92.38,46.438 144.91,119.078 147.28,122.406 0.44,0.614 0.65,1.313 0.97,1.973 0.2,0.43 0.46,0.809 0.62,1.269"
             style="fill:#ffffff;fill-opacity:1;fill-rule:nonzero;stroke:none"
             id="path3043" /><path
             d="m 695.598,399.77 c -73.473,94.582 -200.524,70.332 -205.895,69.269 -6.773,-1.359 -11.156,-7.949 -9.801,-14.719 1.364,-6.761 7.993,-11.14 14.711,-9.789 1.18,0.207 117.168,22.379 181.242,-60.101 5.5,-7.078 11.817,-13.879 18.754,-20.2 2.399,-2.191 5.414,-3.269 8.418,-3.269 3.395,0 6.778,1.379 9.243,4.09 4.648,5.09 4.285,13 -0.817,17.648 -5.89,5.371 -11.23,11.121 -15.855,17.071"
             style="fill:#ffffff;fill-opacity:1;fill-rule:nonzero;stroke:none"
             id="path3045" /><path
             d="m 1225.23,475.969 -3.4,3.34 c -8.11,8.101 -96.66,96.64 -163.86,163.832 -4.88,4.879 -12.79,4.879 -17.67,0 -4.89,-4.879 -4.89,-12.789 0,-17.672 67.19,-67.207 155.76,-155.758 163.86,-163.84 l 3.59,-3.527 c 12.85,-12.582 47,-45.981 47.14,-71.102 0.03,-6.211 -2.11,-11.262 -6.75,-15.898 -6.73,-6.731 -14.17,-9.743 -21.93,-9.864 -17.26,0.192 -33.44,14.961 -36.91,18.344 -7.2,7.508 -14.5,14 -20.14,18.977 -2.49,2.203 -4.51,3.98 -5.77,5.23 l -54.03,54.031 -17.68,-17.679 54.04,-54.032 c 1.51,-1.507 3.9,-3.648 6.87,-6.277 11.64,-10.293 38.91,-34.391 39.47,-52.582 0.13,-4.512 -1.56,-8.359 -5.31,-12.121 -5.77,-5.758 -11.67,-8.488 -17.99,-8.117 -12.87,0.59 -25.88,13.008 -29.81,17.726 -0.02,0.032 -0.05,0.043 -0.07,0.063 -3.47,4.578 -7.35,9.211 -12.1,13.961 l -65.01,65.039 -17.67,-17.68 65.01,-65.051 c 10.59,-10.57 17.01,-20.218 19.07,-28.648 2.07,-8.461 -0.31,-15.524 -7.72,-22.922 -12.32,-12.32 -30.68,-3.43 -36.9,0.172 -3.01,5.109 -6.59,10 -10.97,14.367 -15.1,15.109 -53.84,58.723 -54.23,59.16 -4.59,5.18 -12.49,5.653 -17.64,1.051 -5.165,-4.578 -5.63,-12.48 -1.048,-17.648 1.608,-1.813 39.608,-44.614 55.248,-60.243 6.44,-6.437 10.83,-14.519 12.03,-22.16 1.29,-8.16 -1.03,-15.058 -7.05,-21.097 -2.5,-2.5 -5.34,-3.391 -9.05,-3.571 -8.38,0.059 -28.13,6.008 -66.037,45.141 -4.793,4.957 -12.708,5.058 -17.668,0.269 -4.961,-4.812 -5.086,-12.722 -0.282,-17.679 34.217,-35.313 61.627,-52.563 83.797,-52.731 0.11,0 0.22,0 0.33,0 10.26,0 19.44,3.758 26.58,10.899 9.55,9.539 14.54,21.531 14.62,34.359 4.17,-0.91 8.51,-1.5 12.94,-1.5 11.28,0 23.01,3.52 33.01,13.531 9.86,9.86 15.11,21.11 15.64,33.051 4.32,-1.449 8.83,-2.59 13.67,-2.832 0.75,-0.039 1.5,-0.059 2.24,-0.059 12.62,0 24.59,5.321 34.74,15.481 8.6,8.59 12.96,19.168 12.61,30.559 -0.1,3.128 -0.6,6.23 -1.34,9.312 3.27,-0.633 6.63,-1.043 10.08,-1.094 0.25,0 0.51,0 0.77,0 14.65,0 27.86,5.782 39.27,17.192 9.4,9.39 14.14,20.742 14.07,33.711 -0.2,35.55 -38.36,72.89 -54.66,88.828"
             style="fill:#ffffff;fill-opacity:1;fill-rule:nonzero;stroke:none"
             id="path3047" /><path
             d="m 971.734,282.629 c -13.519,-33.688 -57.339,-76.688 -78.14,-76.688 -2.637,0 -3.86,0.789 -4.879,1.957 -9.567,10.993 6.418,41.301 38.859,73.692 14.551,14.531 28.895,23.211 38.364,23.211 3.222,0 5.718,-1 8.082,-3.27 1.843,-1.761 1.914,-8.429 -2.286,-18.902 z M 814.027,242.992 c -15.648,15.637 13.067,58.387 48.457,93.817 5.313,5.312 12.329,12.32 19.946,19.031 0.32,0.308 0.734,0.48 1.027,0.84 0.039,0.05 0.066,0.09 0.106,0.14 12.57,10.93 26.609,20.789 37.32,20.789 3.73,0 6.68,-1.289 9.566,-4.187 4.614,-4.641 6.754,-9.652 6.735,-15.781 -0.09,-24.481 -33.985,-58.071 -48.461,-72.422 l -3.5,-3.457 c -1.77,-1.782 -3.692,-3.75 -5.746,-5.864 -13.887,-14.25 -37.125,-38.097 -54.063,-38.097 -4.234,0.008 -7.851,1.648 -11.387,5.191 z m -57.48,47.77 c -14.555,14.539 12.664,54.84 46.074,88.308 33.434,33.379 53.938,43.09 66.496,31.469 4.742,-4.379 14.446,-13.449 -4.023,-36.75 -6.856,-6.098 -13.633,-12.648 -20.289,-19.301 C 829.719,339.391 811.137,318.539 798.59,297 788.113,288.18 770.117,277.191 756.547,290.762 z M 710.664,342.5 c -6.367,6.359 0.789,20.961 5.629,29.102 9.406,15.82 23.887,31.257 31.676,39.046 l 3.203,3.211 c 10.543,10.621 28.187,28.379 38.879,28.379 1.344,0 3.012,-0.269 5.152,-2.308 2.207,-2.098 3.211,-4.559 3.25,-7.969 0.188,-15.391 -18.476,-41.02 -37.066,-59.609 l -4.453,-4.543 c -9.692,-9.938 -27.731,-28.457 -39.551,-28.45 -1.664,0 -3.938,0.352 -6.719,3.141 z m 255.274,-12.699 c -3.821,0 -7.625,-0.699 -11.403,-1.672 4.621,9.633 7.613,19.57 7.649,29.43 0.043,12.839 -4.668,24.113 -14.008,33.492 -7.531,7.558 -16.965,11.558 -27.293,11.558 -6.645,0 -13.297,-1.621 -19.934,-4.379 -0.379,14.239 -8.172,24.489 -14.863,30.668 -19.922,18.422 -42.934,12.403 -62.805,0.09 0.071,1.094 0.184,2.192 0.172,3.274 -0.125,10.117 -3.933,19.039 -11.012,25.769 -6.328,6.028 -14.074,9.207 -22.39,9.207 -21.098,0 -40.793,-19.828 -56.613,-35.758 l -3.141,-3.148 c -8.617,-8.621 -24.695,-25.793 -35.496,-43.961 -18.91,-31.812 -11.422,-49.941 -1.813,-59.551 6.848,-6.84 15.282,-10.461 24.395,-10.461 4.203,0 8.34,0.961 12.414,2.301 -4.492,-16.121 -3.067,-31.449 9.07,-43.578 9.164,-9.172 20.235,-13.711 32.164,-13.703 4.574,0 9.282,0.75 14.047,2.082 -1.808,-13.359 0.996,-25.879 11.274,-36.152 8.296,-8.297 18.074,-12.5 29.058,-12.508 0.004,0 0.004,0 0.004,0 12.606,0 25.047,5.801 36.547,13.82 -2.68,-12.672 -1.047,-24.851 7.887,-35.133 6,-6.898 14.211,-10.547 23.746,-10.547 0,0 0,0 0.004,0 36.668,0 86.75,56.039 101.332,92.379 10.26,25.559 3.691,39.282 -3.625,46.282 -6.985,6.679 -15.754,10.199 -25.367,10.199"
             style="fill:#211c1c;fill-opacity:1;fill-rule:nonzero;stroke:none"
             id="path3049" /><path
             d="m 894.668,569.961 c 0,54.508 85.641,116.641 126.802,146.488 8.92,6.481 15.97,11.582 20.68,15.492 28.26,23.391 87.66,37.348 158.9,37.348 54.98,0 100.4,-25.359 128.81,-46.617 35.64,-26.723 148.22,-27.152 160.61,-27.172 6.91,0.02 12.49,5.621 12.47,12.52 -0.02,6.902 -5.61,12.48 -12.5,12.48 -0.5,0.012 -0.79,0 -1.19,0 -44.89,0 -122.77,5.961 -144.4,22.18 -31.46,23.55 -81.94,51.609 -143.8,51.609 -78.03,0 -141.75,-15.699 -174.83,-43.09 -4.11,-3.39 -11.21,-8.551 -19.44,-14.508 C 959,702.02 870.156,637.582 869.668,570.52 c -0.57,-7.071 -4.633,-68.168 22.969,-98.399 10.468,-11.473 23.894,-17.281 39.902,-17.281 14.082,0 25.465,4.449 33.84,13.242 17.996,18.898 16.371,52.398 15.062,79.309 -0.507,10.48 -1.207,24.82 0.141,27.941 14.57,18.738 46.108,46.469 67.558,46.469 6.9,0 12.5,5.597 12.5,12.5 0,6.91 -5.6,12.5 -12.5,12.5 -35.82,0 -75.16,-40.512 -87.288,-56.121 -7.102,-9.11 -6.379,-23.95 -5.383,-44.5 1.019,-20.981 2.414,-49.719 -8.192,-60.848 -2.246,-2.352 -6.32,-5.492 -15.738,-5.492 -8.926,0 -15.734,2.898 -21.422,9.109 -17.66,19.313 -17.898,64.211 -16.5,79.891 0.031,0.371 0.051,0.75 0.051,1.121"
             style="fill:#211c1c;fill-opacity:1;fill-rule:nonzero;stroke:none"
             id="path3051" /></g></g></g></g></svg>